<svg width="14" height="15" viewBox="0 0 14 15" fill="none" xmlns="http://www.w3.org/2000/svg">
<path d="M0.655727 0L0.472438 0.181156C0.472438 0.181156 -0.195405 2.57053 6.18477 8.95071C7.67811 8.10127 8.46474 9.87362 8.53822 10.1257C8.86339 10.4504 12.2248 13.7623 12.2248 13.7623L12.2272 13.7576C12.2293 13.7623 12.2314 13.7666 12.2359 13.7705C12.5412 14.0781 13.0379 14.0781 13.3411 13.7705C13.6464 13.4671 13.6464 12.9689 13.3411 12.6659C13.3389 12.6612 13.3344 12.657 13.3306 12.657V12.6527C10.0647 9.38661 10.0666 9.38488 9.19749 8.52176C8.85717 8.17905 0.655727 0 0.655727 0Z" fill="#101010"/>
<path d="M14.0009 2.10996L13.677 1.78479L10.3766 5.27846L9.98738 4.88772L13.3839 1.49125L13.0988 1.20752L9.681 4.62514L9.35841 4.30232L12.7758 0.884266L12.4618 0.570645L9.04394 3.98826L8.66107 3.60543L12.1892 0.296116L11.893 0L8.64143 2.5321C8.64143 2.5321 8.5235 2.63187 8.4829 2.67288C8.03681 3.11874 7.84495 3.72444 7.90865 4.30659C7.77188 6.57439 5.81752 7.07409 5.52655 7.36506C5.2048 7.68854 0.239344 12.6536 0.239344 12.6536L0.24019 12.6544C0.236365 12.6587 0.232063 12.6595 0.227797 12.6638C-0.07641 12.968 -0.0756009 13.462 0.228238 13.7658C0.531599 14.07 1.02682 14.07 1.32977 13.7666C1.33404 13.7619 1.33617 13.7576 1.33915 13.7542L1.34 13.755C1.34 13.755 6.24434 8.85241 6.61864 8.47766C6.9562 8.13885 7.75176 6.11289 9.82755 6.09175C9.82969 6.0909 9.83524 6.09005 9.83822 6.09005C10.3266 6.10373 10.8193 5.94177 11.2119 5.5987C11.2397 5.57431 11.3034 5.50852 11.3034 5.50852L14.0009 2.10996Z" fill="#101010"/>
</svg>
